HPV Baseline Preliminary Data Analysis
…
# A tibble: 3 × 2
  sex       n
  <chr> <int>
1 FSW    1891
2 MSM      73
3 <NA>      8

Code

combined |> 
    filter(is.na(sex) | is.na(hpv_result)) |> 
    select(pid, hpv_result, sex) 

# A tibble: 88 × 3
   pid     hpv_result sex  
   <chr>   <chr>      <chr>
 1 TSH0019 <NA>       <NA> 
 2 TSH0071 <NA>       FSW  
 3 TSH0073 <NA>       <NA> 
 4 TSH0085 <NA>       FSW  
 5 TSH0107 <NA>       FSW  
 6 TSH0120 <NA>       FSW  
 7 TSH0134 <NA>       FSW  
 8 TSH0161 <NA>       FSW  
 9 TSH0263 <NA>       FSW  
10 TSH0266 <NA>       FSW  
# ℹ 78 more rows
…
